{
	"repositories": [
		{
			"type": "vcs",
			"url": "git@bitbucket.org:elegantmedia/oxygen-laravel.git"
		},
		{
			"type": "vcs",
			"url": "git@bitbucket.org:elegantmedia/devices-laravel.git"
		},
		{
			"type": "vcs",
			"url": "git@bitbucket.org:elegantmedia/laravel-app-settings.git"
		},
		{
			"type": "vcs",
			"url": "git@bitbucket.org:elegantmedia/laravel-api-helpers.git"
		},
		{
			"type": "vcs",
			"url": "git@bitbucket.org:elegantmedia/laravel-media-manager.git"
		},
		{
			"type": "vcs",
			"url": "git@bitbucket.org:elegantmedia/laravel-test-kit.git"
		},
		{
			"type":"vcs",
			"url":"git@bitbucket.org:elegantmedia/lotus.git"
		},
		{
			"type": "vcs",
			"url": "git@bitbucket.org:elegantmedia/formation.git"
		},
		{
			"type": "vcs",
			"url": "git@bitbucket.org:elegantmedia/multitenant-laravel.git"
		}
	]
}
